{
  "swagger": "2.0",
  "info": {
    "title": "api/pages.proto",
    "version": "version not set"
  },
  "schemes": [
    "http",
    "https"
  ],
  "consumes": [
    "application/json"
  ],
  "produces": [
    "application/json"
  ],
  "paths": {
    "/echo": {
      "post": {
        "operationId": "Echo",
        "responses": {
          "200": {
            "description": "",
            "schema": {
              "$ref": "#/definitions/apiEchoResponse"
            }
          }
        },
        "parameters": [
          {
            "name": "body",
            "in": "body",
            "required": true,
            "schema": {
              "$ref": "#/definitions/apiEchoRequest"
            }
          }
        ],
        "tags": [
          "Pages"
        ]
      }
    }
  },
  "definitions": {
    "apiEchoRequest": {
      "type": "object",
      "properties": {
        "message": {
          "type": "string"
        }
      }
    },
    "apiEchoResponse": {
      "type": "object",
      "properties": {
        "message": {
          "type": "string"
        }
      }
    }
  }
}
